{
  "shapes": [
    {
      "name": "square",
      "side-a": 13
    },
    {
      "name": "rectangle",
      "side-a": 23.3,
      "side-b": 16.5
    },
    {
      "name": "circle",
      "radius": "37"
    },
    {
      "name": "square",
      "side-a": "43.35"
    },
    {
      "name": "rectangle",
      "side-a": "6.32",
      "side-b": 8.56
    }
  ]
}